{
    "page": 2,
    "total_results": 7675,
    "total_pages": 384,
    "results": [
        {
            "popularity": 32.92,
            "vote_count": 18681,
            "video": false,
            "poster_path": "/clolk7rB5lAjs41SD0Vt6IXYLMm.jpg",
            "id": 13,
            "adult": false,
            "backdrop_path": "/7c9UVPPiTPltouxRVY6N9uugaVA.jpg",
            "original_language": "en",
            "original_title": "Forrest Gump",
            "genre_ids": [
                35,
                18,
                10749
            ],
            "title": "Forrest Gump",
            "vote_average": 8.5,
            "overview": "A man with a low IQ has accomplished great things in his life and been present during significant historic events—in each case, far exceeding what anyone imagined he could do. But despite all he has achieved, his one true love eludes him.",
            "release_date": "1994-07-06"
        },
        {
            "popularity": 16.865,
            "vote_count": 4892,
            "video": false,
            "poster_path": "/ppd84D2i9W8jXmsyInGyihiSyqz.jpg",
            "id": 389,
            "adult": false,
            "backdrop_path": "/qqHQsStV6exghCM7zbObuYBiYxw.jpg",
            "original_language": "en",
            "original_title": "12 Angry Men",
            "genre_ids": [
                18
            ],
            "title": "12 Angry Men",
            "vote_average": 8.4,
            "overview": "The defense and the prosecution have rested and the jury is filing into the jury room to decide if a young Spanish-American is guilty or innocent of murdering his father. What begins as an open and shut case soon becomes a mini-drama of each of the jurors' prejudices and preconceptions about the trial, the accused, and each other.",
            "release_date": "1957-04-10"
        },
        {
            "popularity": 46.993,
            "vote_count": 23054,
            "video": false,
            "poster_path": "/qJ2tW6WMUDux911r6m7haRef0WH.jpg",
            "id": 155,
            "adult": false,
            "backdrop_path": "/hkBaDkMWbLaf8B1lsWsKX7Ew3Xq.jpg",
            "original_language": "en",
            "original_title": "The Dark Knight",
            "genre_ids": [
                28,
                80,
                18,
                53
            ],
            "title": "The Dark Knight",
            "vote_average": 8.4,
            "overview": "Batman raises the stakes in his war on crime. With the help of Lt. Jim Gordon and District Attorney Harvey Dent, Batman sets out to dismantle the remaining criminal organizations that plague the streets. The partnership proves to be effective, but they soon find themselves prey to a reign of chaos unleashed by a rising criminal mastermind known to the terrified citizens of Gotham as the Joker.",
            "release_date": "2008-07-16"
        },
        {
            "popularity": 23.291,
            "id": 311,
            "video": false,
            "vote_count": 3130,
            "vote_average": 8.4,
            "title": "Once Upon a Time in America",
            "release_date": "1984-05-23",
            "original_language": "en",
            "original_title": "Once Upon a Time in America",
            "genre_ids": [
                18,
                80
            ],
            "backdrop_path": "/gUdk0FMw38DSUqpnLLHCAWN60he.jpg",
            "adult": false,
            "overview": "A former Prohibition-era Jewish gangster returns to the Lower East Side of Manhattan over thirty years later, where he once again must confront the ghosts and regrets of his old life.",
            "poster_path": "/hBDHr3YihnuL46aeyEMhTchXkZP.jpg"
        },
        {
            "popularity": 27.145,
            "id": 769,
            "video": false,
            "vote_count": 7806,
            "vote_average": 8.4,
            "title": "GoodFellas",
            "release_date": "1990-09-12",
            "original_language": "en",
            "original_title": "GoodFellas",
            "genre_ids": [
                18,
                80
            ],
            "backdrop_path": "/sw7mordbZxgITU877yTpZCud90M.jpg",
            "adult": false,
            "overview": "The true story of Henry Hill, a half-Irish, half-Sicilian Brooklyn kid who is adopted by neighbourhood gangsters at an early age and climbs the ranks of a Mafia family under the guidance of Jimmy Conway.",
            "poster_path": "/oErEczcVUmJm0EPdvWsvK4g4Lv3.jpg"
        },
        {
            "popularity": 15.196,
            "vote_count": 242,
            "video": false,
            "poster_path": "/frTwEqSMWQ27oQeuiBO5PT0ZNqq.jpg",
            "id": 599521,
            "adult": false,
            "backdrop_path": "/oAot6sPPLZi0EzHvKBKTjsMfjPf.jpg",
            "original_language": "en",
            "original_title": "Z-O-M-B-I-E-S 2",
            "genre_ids": [
                10402,
                10749,
                10770
            ],
            "title": "Z-O-M-B-I-E-S 2",
            "vote_average": 8.4,
            "overview": "Zed and Addison are back at Seabrook High, where, after a groundbreaking semester, they continue to steer both their school and community toward unity. But the arrival of a new group of outsiders – mysterious werewolves – threatens to shake up the newfound peace and causes a rift in Zed and Addison’s budding romance.",
            "release_date": "2020-02-14"
        },
        {
            "popularity": 19.056,
            "vote_count": 2457,
            "video": false,
            "poster_path": "/8SRUfRUi6x4O68n0VCbDNRa6iGL.jpg",
            "id": 11216,
            "adult": false,
            "backdrop_path": "/zoVeIgKzGJzpdG6Gwnr7iOYfIMU.jpg",
            "original_language": "it",
            "original_title": "Nuovo Cinema Paradiso",
            "genre_ids": [
                18,
                10749
            ],
            "title": "Cinema Paradiso",
            "vote_average": 8.4,
            "overview": "A filmmaker recalls his childhood, when he fell in love with the movies at his village's theater and formed a deep friendship with the theater's projectionist.",
            "release_date": "1988-11-17"
        },
        {
            "popularity": 10.116,
            "vote_count": 642,
            "video": false,
            "poster_path": "/m8eFedsS7vQCZCS8WGp5n1bVD0q.jpg",
            "id": 40096,
            "adult": false,
            "backdrop_path": "/alQqTpmEkxSLgajfEYTsTH6nAKB.jpg",
            "original_language": "pt",
            "original_title": "O Auto da Compadecida",
            "genre_ids": [
                12,
                35
            ],
            "title": "A Dog's Will",
            "vote_average": 8.4,
            "overview": "The lively João Grilo and the sly Chicó are poor guys living in the hinterland who cheat a bunch of people in a small Northeast Brazil town. But when they die, they have to be judged by Christ, the Devil and the Virgin Mary, before they are admitted to paradise. The edited theatrical version of O Auto da Compadecida.",
            "release_date": "2000-09-15"
        },
        {
            "popularity": 9.309,
            "vote_count": 350,
            "video": false,
            "poster_path": "/sfeQTIRkJjWt8IPDSBcPqkrcaas.jpg",
            "id": 640344,
            "adult": false,
            "backdrop_path": "/wooZWiC4NWH0ahCSUOogEmVejHo.jpg",
            "original_language": "it",
            "original_title": "Me contro Te: Il film - La vendetta del Signor S",
            "genre_ids": [
                35,
                10751
            ],
            "title": "Me contro Te: Il film - La vendetta del Signor S",
            "vote_average": 8.4,
            "overview": "Luì and Sofì fight the terrible Signor S once again, this time he will be revealed to the public!!!",
            "release_date": "2020-01-17"
        },
        {
            "popularity": 32.247,
            "id": 429,
            "video": false,
            "vote_count": 5282,
            "vote_average": 8.4,
            "title": "The Good, the Bad and the Ugly",
            "release_date": "1966-12-23",
            "original_language": "it",
            "original_title": "Il buono, il brutto, il cattivo",
            "genre_ids": [
                37
            ],
            "backdrop_path": "/x4biAVdPVCghBlsVIzB6NmbghIz.jpg",
            "adult": false,
            "overview": "While the Civil War rages between the Union and the Confederacy, three men – a quiet loner, a ruthless hit man and a Mexican bandit – comb the American Southwest in search of a strongbox containing $200,000 in stolen gold.",
            "poster_path": "/eWivEg4ugIMAd7d4uWI37b17Cgj.jpg"
        },
        {
            "popularity": 21.838,
            "id": 346,
            "video": false,
            "vote_count": 1998,
            "vote_average": 8.4,
            "title": "Seven Samurai",
            "release_date": "1954-04-26",
            "original_language": "ja",
            "original_title": "七人の侍",
            "genre_ids": [
                28,
                18
            ],
            "backdrop_path": "/sJNNMCc6B7KZIY3LH3JMYJJNH5j.jpg",
            "adult": false,
            "overview": "A samurai answers a village's request for protection after he falls on hard times. The town needs protection from bandits, so the samurai gathers six others to help him teach the people how to defend themselves, and the villagers provide the soldiers with food. A giant battle occurs when 40 bandits attack the village.",
            "poster_path": "/8OKmBV5BUFzmozIC3pPWKHy17kx.jpg"
        },
        {
            "popularity": 22.769,
            "vote_count": 6538,
            "video": false,
            "poster_path": "/nR4LD4ZJg2n6LZQpcOrLFdMq0cD.jpg",
            "id": 539,
            "adult": false,
            "backdrop_path": "/kZGaVeXSkkvrpMYvD97sxHj291k.jpg",
            "original_language": "en",
            "original_title": "Psycho",
            "genre_ids": [
                18,
                27,
                53
            ],
            "title": "Psycho",
            "vote_average": 8.4,
            "overview": "When larcenous real estate clerk Marion Crane goes on the lam with a wad of cash and hopes of starting a new life, she ends up at the notorious Bates Motel, where manager Norman Bates cares for his housebound mother.",
            "release_date": "1960-06-22"
        },
        {
            "popularity": 34.82,
            "vote_count": 19888,
            "video": false,
            "poster_path": "/pB8BM7pdSp6B6Ih7QZ4DrQ3PmJK.jpg",
            "id": 550,
            "adult": false,
            "backdrop_path": "/rr7E0NoGKxvbkb89eR1GwfoYjpA.jpg",
            "original_language": "en",
            "original_title": "Fight Club",
            "genre_ids": [
                18
            ],
            "title": "Fight Club",
            "vote_average": 8.4,
            "overview": "A ticking-time-bomb insomniac and a slippery soap salesman channel primal male aggression into a shocking new form of therapy. Their concept catches on, with underground \"fight clubs\" forming in every town, until an eccentric gets in the way and ignites an out-of-control spiral toward oblivion.",
            "release_date": "1999-10-15"
        },
        {
            "popularity": 24.853,
            "vote_count": 6922,
            "video": false,
            "poster_path": "/3jcbDmRFiQ83drXNOvRDeKHxS0C.jpg",
            "id": 510,
            "adult": false,
            "backdrop_path": "/5Q1TS4BR9QaoHfkYD06h3ezVshP.jpg",
            "original_language": "en",
            "original_title": "One Flew Over the Cuckoo's Nest",
            "genre_ids": [
                18
            ],
            "title": "One Flew Over the Cuckoo's Nest",
            "vote_average": 8.4,
            "overview": "While serving time for insanity at a state mental hospital, implacable rabble-rouser, Randle Patrick McMurphy, inspires his fellow patients to rebel against the authoritarian rule of head nurse, Mildred Ratched.",
            "release_date": "1975-11-18"
        },
        {
            "popularity": 19.68,
            "vote_count": 567,
            "video": false,
            "poster_path": "/4VlXER3FImHeFuUjBShFamhIp9M.jpg",
            "id": 664767,
            "adult": false,
            "backdrop_path": "/vw3zNfzvnVNF7nIjpiEgcdznfeC.jpg",
            "original_language": "en",
            "original_title": "Mortal Kombat Legends: Scorpion's Revenge",
            "genre_ids": [
                28,
                12,
                16,
                14
            ],
            "title": "Mortal Kombat Legends: Scorpion's Revenge",
            "vote_average": 8.4,
            "overview": "After the vicious slaughter of his family by stone-cold mercenary Sub-Zero, Hanzo Hasashi is exiled to the torturous Netherrealm. There, in exchange for his servitude to the sinister Quan Chi, he’s given a chance to avenge his family – and is resurrected as Scorpion, a lost soul bent on revenge. Back on Earthrealm, Lord Raiden gathers a team of elite warriors – Shaolin monk Liu Kang, Special Forces officer Sonya Blade and action star Johnny Cage – an unlikely band of heroes with one chance to save humanity. To do this, they must defeat Shang Tsung’s horde of Outworld gladiators and reign over the Mortal Kombat tournament.",
            "release_date": "2020-04-12"
        },
        {
            "popularity": 21.201,
            "vote_count": 4438,
            "video": false,
            "poster_path": "/mG7YgoeA4ortmwcrtbkIEQjexSB.jpg",
            "id": 598,
            "adult": false,
            "backdrop_path": "/rr0vFvjbAU7zaLjSRtUAxavH2bv.jpg",
            "original_language": "pt",
            "original_title": "Cidade de Deus",
            "genre_ids": [
                80,
                18
            ],
            "title": "City of God",
            "vote_average": 8.4,
            "overview": "Cidade de Deus is a shantytown that started during the 1960s and became one of Rio de Janeiro’s most dangerous places in the beginning of the 1980s. To tell the story of this place, the movie describes the life of various characters, all seen by the point of view of the narrator, Buscapé. Buscapé was raised in a very violent environment. Despite the feeling that all odds were against him, he finds out that life can be seen with other eyes...",
            "release_date": "2002-02-05"
        },
        {
            "popularity": 42.243,
            "vote_count": 7819,
            "video": false,
            "poster_path": "/iiZZdoQBEYBv6id8su7ImL0oCbD.jpg",
            "id": 324857,
            "adult": false,
            "backdrop_path": "/aUVCJ0HkcJIBrTJYPnTXta8h9Co.jpg",
            "original_language": "en",
            "original_title": "Spider-Man: Into the Spider-Verse",
            "genre_ids": [
                28,
                12,
                16,
                35,
                878
            ],
            "title": "Spider-Man: Into the Spider-Verse",
            "vote_average": 8.4,
            "overview": "Miles Morales is juggling his life between being a high school student and being a spider-man. When Wilson \"Kingpin\" Fisk uses a super collider, others from across the Spider-Verse are transported to this dimension.",
            "release_date": "2018-12-06"
        },
        {
            "popularity": 35.594,
            "vote_count": 5508,
            "video": false,
            "poster_path": "/TkTPELv4kC3u1lkloush8skOjE.jpg",
            "id": 4935,
            "adult": false,
            "backdrop_path": "/iuFbU5jiNh8DAxLBGifZCvv3KmB.jpg",
            "original_language": "ja",
            "original_title": "ハウルの動く城",
            "genre_ids": [
                12,
                16,
                14
            ],
            "title": "Howl's Moving Castle",
            "vote_average": 8.4,
            "overview": "When Sophie, a shy young woman, is cursed with an old body by a spiteful witch, her only chance of breaking the spell lies with a self-indulgent yet insecure young wizard and his companions in his legged, walking castle.",
            "release_date": "2004-11-19"
        },
        {
            "popularity": 0.6,
            "id": 12477,
            "video": false,
            "vote_count": 2950,
            "vote_average": 8.4,
            "title": "Grave of the Fireflies",
            "release_date": "1988-04-16",
            "original_language": "ja",
            "original_title": "火垂るの墓",
            "genre_ids": [
                16,
                18,
                10752
            ],
            "backdrop_path": "/dlC0ed9Ugh3FzydnkBtV5lRXUu4.jpg",
            "adult": false,
            "overview": "In the final months of World War II, 14-year-old Seita and his sister Setsuko are orphaned when their mother is killed during an air raid in Kobe, Japan. After a falling out with their aunt, they move into an abandoned bomb shelter. With no surviving relatives and their emergency rations depleted, Seita and Setsuko struggle to survive.",
            "poster_path": "/wcNkHDbyc290hcWk7KXbBZUuXpq.jpg"
        },
        {
            "popularity": 12.513,
            "vote_count": 1443,
            "video": false,
            "poster_path": "/zt8aQ6ksqK6p1AopC5zVTDS9pKT.jpg",
            "id": 599,
            "adult": false,
            "backdrop_path": "/p47ihFj4A7EpBjmPHdTj4ipyq1S.jpg",
            "original_language": "en",
            "original_title": "Sunset Boulevard",
            "genre_ids": [
                18
            ],
            "title": "Sunset Boulevard",
            "vote_average": 8.4,
            "overview": "A hack screenwriter writes a screenplay for a former silent film star who has faded into Hollywood obscurity.",
            "release_date": "1950-08-10"
        }
    ]
}
